Bitcoin,BTC,https://coinmarketcap.com/currencies/bitcoin/,8723.6558912
Ethereum,ETH,https://coinmarketcap.com/currencies/ethereum/,185.402724405
XRP,XRP,https://coinmarketcap.com/currencies/ripple/,0.269452204339
Bitcoin Cash,BCH,https://coinmarketcap.com/currencies/bitcoin-cash/,278.200771359
Tether,USDT,https://coinmarketcap.com/currencies/tether/,1.00228534509
Litecoin,LTC,https://coinmarketcap.com/currencies/litecoin/,60.4246444281
Binance Coin,BNB,https://coinmarketcap.com/currencies/binance-coin/,21.0891897341
EOS,EOS,https://coinmarketcap.com/currencies/eos/,3.47592096266
Bitcoin SV,BSV,https://coinmarketcap.com/currencies/bitcoin-sv/,127.02533699
Stellar,XLM,https://coinmarketcap.com/currencies/stellar/,0.0733193479239
TRON,TRX,https://coinmarketcap.com/currencies/tron/,0.0194580058174
Cardano,ADA,https://coinmarketcap.com/currencies/cardano/,0.0436769024313
Monero,XMR,https://coinmarketcap.com/currencies/monero/,65.2637191083
Chainlink,LINK,https://coinmarketcap.com/currencies/chainlink/,3.00012731668
UNUS SED LEO,LEO,https://coinmarketcap.com/currencies/unus-sed-leo/,0.960646060832
Huobi Token,HT,https://coinmarketcap.com/currencies/huobi-token/,3.79361323043
NEO,NEO,https://coinmarketcap.com/currencies/neo/,12.6126411212
Tezos,XTZ,https://coinmarketcap.com/currencies/tezos/,1.20386467618
Cosmos,ATOM,https://coinmarketcap.com/currencies/cosmos/,4.08372883955
IOTA,MIOTA,https://coinmarketcap.com/currencies/iota/,0.263883015759
Dash,DASH,https://coinmarketcap.com/currencies/dash/,69.4574042644
Maker,MKR,https://coinmarketcap.com/currencies/maker/,591.855559279
Ethereum Classic,ETC,https://coinmarketcap.com/currencies/ethereum-classic/,4.76581802458
Ontology,ONT,https://coinmarketcap.com/currencies/ontology/,0.88647031668
Crypto.com Coin,CRO,https://coinmarketcap.com/currencies/crypto-com-coin/,0.0389348610726
VeChain,VET,https://coinmarketcap.com/currencies/vechain/,0.0079875994597
USD Coin,USDC,https://coinmarketcap.com/currencies/usd-coin/,1.00287243593
NEM,XEM,https://coinmarketcap.com/currencies/nem/,0.0406258426691
Basic Attenti...,BAT,https://coinmarketcap.com/currencies/basic-attention-token/,0.249455271777
Dogecoin,DOGE,https://coinmarketcap.com/currencies/dogecoin/,0.00266475017423
Zcash,ZEC,https://coinmarketcap.com/currencies/zcash/,36.1491178539
Decred,DCR,https://coinmarketcap.com/currencies/decred/,24.1581948611
BLOCKv,VEE,https://coinmarketcap.com/currencies/blockv/,0.0898490641564
Paxos Standard,PAX,https://coinmarketcap.com/currencies/paxos-standard/,1.00584074699
Qtum,QTUM,https://coinmarketcap.com/currencies/qtum/,2.30243729306
HedgeTrade,HEDG,https://coinmarketcap.com/currencies/hedgetrade/,0.737506960577
0x,ZRX,https://coinmarketcap.com/currencies/0x/,0.287377598965
TrueUSD,TUSD,https://coinmarketcap.com/currencies/trueusd/,1.00364724052
Centrality,CENNZ,https://coinmarketcap.com/currencies/centrality/,0.15379980469
Holo,HOT,https://coinmarketcap.com/currencies/holo/,0.000995500105306
V Systems,VSYS,https://coinmarketcap.com/currencies/v-systems/,0.0780073803604
Bitcoin Gold,BTG,https://coinmarketcap.com/currencies/bitcoin-gold/,8.17587210548
OmiseGO,OMG,https://coinmarketcap.com/currencies/omisego/,1.02083949171
ZB,ZB,https://coinmarketcap.com/currencies/zb/,0.287110391375
Ravencoin,RVN,https://coinmarketcap.com/currencies/ravencoin/,0.0271565927978
Nano,NANO,https://coinmarketcap.com/currencies/nano/,0.951465045406
Synthetix Net...,SNX,https://coinmarketcap.com/currencies/synthetix-network-token/,0.855473079899
Augur,REP,https://coinmarketcap.com/currencies/augur/,11.177183536
ABBC Coin,ABBC,https://coinmarketcap.com/currencies/abbc-coin/,0.220377315911
Algorand,ALGO,https://coinmarketcap.com/currencies/algorand/,0.280448980266
Bytom,BTM,https://coinmarketcap.com/currencies/bytom/,0.114410633085
LUNA,LUNA,https://coinmarketcap.com/currencies/luna/,0.375247859887
Komodo,KMD,https://coinmarketcap.com/currencies/komodo/,0.883984905639
Dai,DAI,https://coinmarketcap.com/currencies/dai/,1.00685334776
KuCoin Shares,KCS,https://coinmarketcap.com/currencies/kucoin-shares/,1.18176037176
DxChain Token,DX,https://coinmarketcap.com/currencies/dxchain-token/,0.00187786249496
Silverway,SLV,https://coinmarketcap.com/currencies/silverway/,0.937917346997
Lisk,LSK,https://coinmarketcap.com/currencies/lisk/,0.766591093458
EDUCare,EKT,https://coinmarketcap.com/currencies/educare/,0.0977689612724
Seele,SEELE,https://coinmarketcap.com/currencies/seele/,0.131771242163
BitTorrent,BTT,https://coinmarketcap.com/currencies/bittorrent/,0.000427995264616
Bitcoin Diamond,BCD,https://coinmarketcap.com/currencies/bitcoin-diamond/,0.483125983671
DigiByte,DGB,https://coinmarketcap.com/currencies/digibyte/,0.0070307995079
Verge,XVG,https://coinmarketcap.com/currencies/verge/,0.00527854909895
Siacoin,SC,https://coinmarketcap.com/currencies/siacoin/,0.00202004572659
HyperCash,HC,https://coinmarketcap.com/currencies/hypercash/,1.84526643476
ICON,ICX,https://coinmarketcap.com/currencies/icon/,0.160716950151
Quant,QNT,https://coinmarketcap.com/currencies/quant/,6.67022719756
FTX Token,FTT,https://coinmarketcap.com/currencies/ftx-token/,1.51515848059
Swipe,SXP,https://coinmarketcap.com/currencies/swipe/,1.28225928468
Waves,WAVES,https://coinmarketcap.com/currencies/waves/,0.775676783304
IOST,IOST,https://coinmarketcap.com/currencies/iostoken/,0.0064468388499
THETA,THETA,https://coinmarketcap.com/currencies/theta/,0.0884816631386
BitShares,BTS,https://coinmarketcap.com/currencies/bitshares/,0.0266212843412
Bytecoin,BCN,https://coinmarketcap.com/currencies/bytecoin-bcn/,0.000385615000453
MonaCoin,MONA,https://coinmarketcap.com/currencies/monacoin/,1.07500229099
Aeternity,AE,https://coinmarketcap.com/currencies/aeternity/,0.237411311957
MCO,MCO,https://coinmarketcap.com/currencies/crypto-com/,4.31399025341
Nexo,NEXO,https://coinmarketcap.com/currencies/nexo/,0.111542086077
MaidSafeCoin,MAID,https://coinmarketcap.com/currencies/maidsafecoin/,0.13285375007
iExec RLC,RLC,https://coinmarketcap.com/currencies/rlc/,0.720078440776
BitMax Token,BTMX,https://coinmarketcap.com/currencies/bitmax-token/,0.0693897410974
Zilliqa,ZIL,https://coinmarketcap.com/currencies/zilliqa/,0.00625960711804
Chiliz,CHZ,https://coinmarketcap.com/currencies/chiliz/,0.0142957996617
Ardor,ARDR,https://coinmarketcap.com/currencies/ardor/,0.0537856369285
Enjin Coin,ENJ,https://coinmarketcap.com/currencies/enjin-coin/,0.0661558306983
Steem,STEEM,https://coinmarketcap.com/currencies/steem/,0.147745437169
Aurora,AOA,https://coinmarketcap.com/currencies/aurora/,0.00790567712673
Energi,NRG,https://coinmarketcap.com/currencies/energi/,2.2656566854
Ren,REN,https://coinmarketcap.com/currencies/ren/,0.0594751741554
RIF Token,RIF,https://coinmarketcap.com/currencies/rif-token/,0.0877486901143
Horizen,ZEN,https://coinmarketcap.com/currencies/zencash/,5.99274884211
aelf,ELF,https://coinmarketcap.com/currencies/aelf/,0.0854673947588
Status,SNT,https://coinmarketcap.com/currencies/status/,0.0128015620186
Golem,GNT,https://coinmarketcap.com/currencies/golem-network-tokens/,0.0450420299658
UNI COIN,UNI,https://coinmarketcap.com/currencies/uni-coin/,3.34061515147
Newton,NEW,https://coinmarketcap.com/currencies/newton/,0.00360702899683
Crypterium,CRPT,https://coinmarketcap.com/currencies/crpt/,0.507445944914
ILCoin,ILC,https://coinmarketcap.com/currencies/ilcoin/,0.123270645638
Pundi X,NPXS,https://coinmarketcap.com/currencies/pundi-x/,0.000175129118639
